%YAML 1.1
%TAG !u! tag:unity3d.com,2011:
--- !u!78 &1
TagManager:
  serializedVersion: 2
  tags: []
  layers:
  - Default
  - TransparentFX
  - Ignore Raycast
  - 
  - Water
  - UI
  - 
  - 
  - Player
  - Platform
  - 
  - 
  - 
  - 
  - 
  - 
  - 
  - 
  - 
  - 
  - 
  - 
  - 
  - 
  - 
  - 
  - 
  - 
  - 
  - 
  - 
  - 
  m_SortingLayers:
  - name: Background
    uniqueID: 1542862385
    locked: 0
  - name: Default
    uniqueID: 0
    locked: 0
  - name: Tilemap
    uniqueID: 1989127309
    locked: 0
  - name: Player
    uniqueID: 2119121727
    locked: 0
  - name: Spike
    uniqueID: 1299607871
    locked: 0
  - name: GameOver
    uniqueID: 2292576569
    locked: 0
